[{
  "ParameterKey": "S3BucketParam",
  "ParameterValue": "ua-uits-ecs"
}, {
  "ParameterKey": "S3FolderParam",
  "ParameterValue": "uits-incident-alerts-source/"
}, {
  "ParameterKey": "S3KeyParam",
  "ParameterValue": "uits-alerts.zip"
}, {
  "ParameterKey": "DynamoDbTblPfxParam",
  "ParameterValue": "uits-incidents-"
}, {
  "ParameterKey": "VPCIdParam",
  "ParameterValue": "vpcid"
}, {
  "ParameterKey": "PrivateSubnetsParam",
  "ParameterValue": "subnet-abcd0000"
}, {
  "ParameterKey": "PublicSubnetsParam",
  "ParameterValue": "subnet-0000dcba"
}, {
  "ParameterKey": "AdminGroupParam",
  "ParameterValue": "arizona.edu:services:enterprise:incident-alerts:admins"
}, {
  "ParameterKey": "AlertBaseURLParam",
  "ParameterValue": "https://incidents.uits.arizona.edu/i/"
}, {
  "ParameterKey": "CloudWatchLogStreamParam",
  "ParameterValue": "uits-incident-alerts-stream"
}, {
  "ParameterKey": "CreateDependenciesParam",
  "ParameterValue": "YES"
}, {
  "ParameterKey": "DebugParam",
  "ParameterValue": "http,api,scheduler"
}, {
  "ParameterKey": "DecryptKeyParam",
  "ParameterValue": "decryption key"
}, {
  "ParameterKey": "DomainParam",
  "ParameterValue": "incidents.uits.arizona.edu"
}, {
  "ParameterKey": "DuoHostParam",
  "ParameterValue": "api-abcd0000.duosecurity.com"
}, {
  "ParameterKey": "DuoIkeyParam",
  "ParameterValue": "duo ikey"
}, {
  "ParameterKey": "DuoSkeyParam",
  "ParameterValue": "duo skey"
}, {
  "ParameterKey": "EntityIDParam",
  "ParameterValue": "https://incidents.uits.arizona.edu/shibboleth"
}, {
  "ParameterKey": "GoogleAPIKeyParam",
  "ParameterValue": "google API key"
}, {
  "ParameterKey": "IncidentAlertsLogGroupParam",
  "ParameterValue": "N/A"
}, {
  "ParameterKey": "IncidentAlertsSNSTopicArnParam",
  "ParameterValue": "N/A"
}, {
  "ParameterKey": "IncidentAlertsSQSQueueArnParam",
  "ParameterValue": "N/A"
}, {
  "ParameterKey": "IncidentAlertsSQSQueueURLParam",
  "ParameterValue": "N/A"
}, {
  "ParameterKey": "LDAPBindDNParam",
  "ParameterValue": "uid=app-account,ou=App Users,dc=eds,dc=arizona,dc=edu"
}, {
  "ParameterKey": "LDAPBindPwParam",
  "ParameterValue": "password"
}, {
  "ParameterKey": "LDAPSearchBaseParam",
  "ParameterValue": "ou=people,dc=eds,dc=arizona,dc=edu"
}, {
  "ParameterKey": "LDAPURLParam",
  "ParameterValue": "ldaps://eds.arizona.edu"
}, {
  "ParameterKey": "OwnerTagParam",
  "ParameterValue": "Gary Windham"
}, {
  "ParameterKey": "NetidTagParam",
  "ParameterValue": "windhamg"
}, {
  "ParameterKey": "ProjectNameTagParam",
  "ParameterValue": "UITS Incident Alerts"
}, {
  "ParameterKey": "TwitterAccessTokenKeyParam",
  "ParameterValue": "twitter access token key"
}, {
  "ParameterKey": "TwitterAccessTokenSecretParam",
  "ParameterValue": "twitter access token secret"
}, {
  "ParameterKey": "TwitterConsumerKeyParam",
  "ParameterValue": "twitter consumer key"
}, {
  "ParameterKey": "TwitterConsumerSecretParam",
  "ParameterValue": "twitter consumer secret"
}, {
  "ParameterKey": "SSLCertArnParam",
  "ParameterValue": "SSL-CERT-ARN-REPLACE-ME"
}]
